%YAML 1.1
%TAG !u! tag:unity3d.com,2011:
--- !u!74 &7400000
AnimationClip:
  m_ObjectHideFlags: 0
  m_CorrespondingSourceObject: {fileID: 0}
  m_PrefabInstance: {fileID: 0}
  m_PrefabAsset: {fileID: 0}
  m_Name: Attack
  serializedVersion: 6
  m_Legacy: 0
  m_Compressed: 0
  m_UseHighQualityCurve: 1
  m_RotationCurves: []
  m_CompressedRotationCurves: []
  m_EulerCurves: []
  m_PositionCurves: []
  m_ScaleCurves: []
  m_FloatCurves: []
  m_PPtrCurves:
  - curve:
    - time: 0
      value: {fileID: 21300000, guid: 3e90b4fc793f24ef0a5a8e969d02327e, type: 3}
    - time: 0.16666667
      value: {fileID: 21300000, guid: 09aa49c9ad39e4a459e1bf4df9edd2de, type: 3}
    - time: 0.33333334
      value: {fileID: 21300000, guid: 789875796cf924ca192c35bf03329fc4, type: 3}
    - time: 0.5
      value: {fileID: 21300000, guid: 778e2557a1c9d429b91f3c123afef7c1, type: 3}
    - time: 0.6666667
      value: {fileID: 21300000, guid: 02f0d8bc767d94a5fb1214c5ff1bdac2, type: 3}
    attribute: fullHeart
    path: 
    classID: 114
    script: {fileID: 11500000, guid: 72d3779b506cf96439515c762b2824bd, type: 3}
  m_SampleRate: 60
  m_WrapMode: 0
  m_Bounds:
    m_Center: {x: 0, y: 0, z: 0}
    m_Extent: {x: 0, y: 0, z: 0}
  m_ClipBindingConstant:
    genericBindings:
    - serializedVersion: 2
      path: 0
      attribute: 2045739323
      script: {fileID: 11500000, guid: 72d3779b506cf96439515c762b2824bd, type: 3}
      typeID: 114
      customType: 0
      isPPtrCurve: 1
    pptrCurveMapping:
    - {fileID: 21300000, guid: 3e90b4fc793f24ef0a5a8e969d02327e, type: 3}
    - {fileID: 21300000, guid: 09aa49c9ad39e4a459e1bf4df9edd2de, type: 3}
    - {fileID: 21300000, guid: 789875796cf924ca192c35bf03329fc4, type: 3}
    - {fileID: 21300000, guid: 778e2557a1c9d429b91f3c123afef7c1, type: 3}
    - {fileID: 21300000, guid: 02f0d8bc767d94a5fb1214c5ff1bdac2, type: 3}
  m_AnimationClipSettings:
    serializedVersion: 2
    m_AdditiveReferencePoseClip: {fileID: 0}
    m_AdditiveReferencePoseTime: 0
    m_StartTime: 0
    m_StopTime: 0.68333334
    m_OrientationOffsetY: 0
    m_Level: 0
    m_CycleOffset: 0
    m_HasAdditiveReferencePose: 0
    m_LoopTime: 1
    m_LoopBlend: 0
    m_LoopBlendOrientation: 0
    m_LoopBlendPositionY: 0
    m_LoopBlendPositionXZ: 0
    m_KeepOriginalOrientation: 0
    m_KeepOriginalPositionY: 1
    m_KeepOriginalPositionXZ: 0
    m_HeightFromFeet: 0
    m_Mirror: 0
  m_EditorCurves: []
  m_EulerEditorCurves: []
  m_HasGenericRootTransform: 0
  m_HasMotionFloatCurves: 0
  m_Events: []
